%!Adobe-FontList 1.14
%Locale:0x409

%BeginFont
Handler:DirectoryHandler
FontType:Invalid
OutlineFileName:F:\New Folder\All other stuff\All website projects\Website Online Learning\Assets\Font\.DS_Store
FileModTime:1438644678
%EndFont

%BeginFont
Handler:DirectoryHandler
FontType:Type1
FontName:MuseoSans-500
FamilyName:Museo Sans
StyleName:500
FullName:Museo Sans 500
MenuName:Museo Sans 500
StyleBits:0
WritingScript:Roman
OutlineFileName:F:\New Folder\All other stuff\All website projects\Website Online Learning\Assets\Font\MuseoSans.otf
DataFormat:sfntData
UsesStandardEncoding:yes
isCFF:yes
FileLength:62504
FileModTime:1318041276
WeightClass:400
WidthClass:5
AngleClass:0
%EndFont

%BeginFont
Handler:DirectoryHandler
FontType:Type1
FontName:MuseoSans-700
FamilyName:Museo Sans
StyleName:700
FullName:Museo Sans 700
MenuName:Museo Sans 700
StyleBits:0
WritingScript:Roman
OutlineFileName:F:\New Folder\All other stuff\All website projects\Website Online Learning\Assets\Font\MuseoSans_0.otf
DataFormat:sfntData
UsesStandardEncoding:yes
isCFF:yes
FileLength:63568
FileModTime:1318041278
WeightClass:600
WidthClass:5
AngleClass:0
%EndFont

%BeginFont
Handler:DirectoryHandler
FontType:Type1
FontName:MuseoSans-900
FamilyName:Museo Sans
StyleName:900
FullName:Museo Sans 900
MenuName:Museo Sans 900
StyleBits:0
WritingScript:Roman
OutlineFileName:F:\New Folder\All other stuff\All website projects\Website Online Learning\Assets\Font\MuseoSans_1.otf
DataFormat:sfntData
UsesStandardEncoding:yes
isCFF:yes
FileLength:65240
FileModTime:1318041278
WeightClass:700
WidthClass:5
AngleClass:0
%EndFont

